Condition	Water_deficit_vs_Control	20brix_vs_24brix	20brix_vs_22brix	20brix_vs_26brix	22brix_vs_24brix	22brix_vs_26brix	24brix_vs_26brix	Chardonnay_vs_Cabernet_sauvignon	Chardonnay_vs_Merlot	Chardonnay_vs_Pinot_noir	Chardonnay_vs_Semillon	Chardonnay_vs_Sauvignon_blanc	Cabernet_sauvignon_vs_Merlot	Cabernet_sauvignon_vs_Pinot_noir	Cabernet_sauvignon_vs_Semillon	Cabernet_sauvignon_vs_Sauvignon_blanc	Merlot_vs_Pinot_noir	Merlot_vs_Semillon	Merlot_vs_Sauvignon_blanc	Pinot_noir_vs_Semillon	Pinot_noir_vs_Sauvignon_blanc	Semillon_vs_Sauvignon_blanc
Chardonnay_Water_deficit	+	0	0	0	0	0	0	+	+	+	+	+	0	0	0	0	0	0	0	0	0	0
Chardonnay_Control	-	0	0	0	0	0	0	+	+	+	+	+	0	0	0	0	0	0	0	0	0	0
Cabernet_sauvignon_Water_deficit	+	0	0	0	0	0	0	-	0	0	0	0	+	+	+	+	0	0	0	0	0	0
Cabernet_sauvignon_Control	-	0	0	0	0	0	0	-	0	0	0	0	+	+	+	+	0	0	0	0	0	0
Merlot_Water_deficit	+	0	0	0	0	0	0	0	-	0	0	0	-	0	0	0	+	+	+	0	0	0
Merlot_Control	-	0	0	0	0	0	0	0	-	0	0	0	-	0	0	0	+	+	+	0	0	0
Pinot_noir_Water_deficit	+	0	0	0	0	0	0	0	0	-	0	0	0	-	0	0	-	0	0	+	+	0
Pinot_noir_Control	-	0	0	0	0	0	0	0	0	-	0	0	0	-	0	0	-	0	0	+	+	0
Semillon_Water_deficit	+	0	0	0	0	0	0	0	0	0	-	0	0	0	-	0	0	-	0	-	0	+
Semillon_Control	-	0	0	0	0	0	0	0	0	0	-	0	0	0	-	0	0	-	0	-	0	+
Cabernet_sauvignon_20brix	0	+	+	+	0	0	0	-	0	0	0	0	+	+	+	+	0	0	0	0	0	0
Cabernet_sauvignon_22brix	0	0	-	0	+	+	0	-	0	0	0	0	+	+	+	+	0	0	0	0	0	0
Cabernet_sauvignon_24brix	0	-	0	0	-	0	+	-	0	0	0	0	+	+	+	+	0	0	0	0	0	0
Cabernet_sauvignon_26brix	0	0	0	-	0	-	-	-	0	0	0	0	+	+	+	+	0	0	0	0	0	0
Merlot_20brix	0	+	+	+	0	0	0	0	-	0	0	0	-	0	0	0	+	+	+	0	0	0
Merlot_22brix	0	0	-	0	+	+	0	0	-	0	0	0	-	0	0	0	+	+	+	0	0	0
Merlot_24brix	0	-	0	0	-	0	+	0	-	0	0	0	-	0	0	0	+	+	+	0	0	0
Merlot_26brix	0	0	0	-	0	-	-	0	-	0	0	0	-	0	0	0	+	+	+	0	0	0
Pinot_noir_20brix	0	+	+	+	0	0	0	0	0	-	0	0	0	-	0	0	-	0	0	+	+	0
Pinot_noir_22brix	0	0	-	0	+	+	0	0	0	-	0	0	0	-	0	0	-	0	0	+	+	0
Pinot_noir_24brix	0	-	0	0	-	0	+	0	0	-	0	0	0	-	0	0	-	0	0	+	+	0
Pinot_noir_26brix	0	0	0	-	0	-	-	0	0	-	0	0	0	-	0	0	-	0	0	+	+	0
Chardonnay_20brix	0	+	+	+	0	0	0	+	+	+	+	+	0	0	0	0	0	0	0	0	0	0
Chardonnay_22brix	0	0	-	0	+	+	0	+	+	+	+	+	0	0	0	0	0	0	0	0	0	0
Chardonnay_24brix	0	-	0	0	-	0	+	+	+	+	+	+	0	0	0	0	0	0	0	0	0	0
Chardonnay_26brix	0	0	0	-	0	-	-	+	+	+	+	+	0	0	0	0	0	0	0	0	0	0
Sauvignon_blanc_20brix	0	+	+	+	0	0	0	0	0	0	0	-	0	0	0	-	0	0	-	0	-	-
Sauvignon_blanc_22brix	0	0	-	0	+	+	0	0	0	0	0	-	0	0	0	-	0	0	-	0	-	-
Sauvignon_blanc_24brix	0	-	0	0	-	0	+	0	0	0	0	-	0	0	0	-	0	0	-	0	-	-
Sauvignon_blanc_26brix	0	0	0	-	0	-	-	0	0	0	0	-	0	0	0	-	0	0	-	0	-	-
Semillon_20brix	0	+	+	+	0	0	0	0	0	0	-	0	0	0	-	0	0	-	0	-	0	+
Semillon_22brix	0	0	-	0	+	+	0	0	0	0	-	0	0	0	-	0	0	-	0	-	0	+
Semillon_24brix	0	-	0	0	-	0	+	0	0	0	-	0	0	0	-	0	0	-	0	-	0	+
Semillon_26brix	0	0	0	-	0	-	-	0	0	0	-	0	0	0	-	0	0	-	0	-	0	+
